// Jest Snapshot v1, https://goo.gl/fbAQLP

exports[`DeadLineSelector component renders without crashing 1`] = `
<styled.div>
  <div
    style={
      Object {
        "width": "40%",
      }
    }
  >
    <div>
      <b>
        Deadline (recommended)
      </b>
    </div>
    <div>
      <label>
        Helps you raise more money, faster.
      </label>
    </div>
  </div>
  <div
    style={
      Object {
        "width": "60%",
      }
    }
  >
    <RadioButton
      checked={false}
      disabled={false}
      label="No deadline"
      labelPosition="right"
      value="1"
    />
    <styled.div>
      <RadioButton
        checked={false}
        className="js-radio-button-2"
        disabled={false}
        label="Run for..."
        labelPosition="right"
        style={
          Object {
            "width": "20%",
          }
        }
        value="2"
      />
      <TextField
        className="js-textfield-button"
        disabled={false}
        floatingLabelFixed={false}
        fullWidth={false}
        id="2"
        multiLine={false}
        name="deadlineInput"
        rows={1}
        type="text"
        underlineShow={true}
      />
      <p>
        days left
      </p>
    </styled.div>
    <styled.div>
      <RadioButton
        checked={false}
        disabled={false}
        label="Run until..."
        labelPosition="right"
        style={
          Object {
            "width": "20%",
          }
        }
        value="3"
      />
      <DatePicker
        autoOk={false}
        className="js-datepicker-button"
        container="dialog"
        disableYearSelection={false}
        disabled={false}
        firstDayOfWeek={1}
        floatingLabelText="Pick a Date"
        hideCalendarDate={false}
        id="3"
        name="deadLineDate"
        style={Object {}}
      />
    </styled.div>
  </div>
</styled.div>
`;
